%YAML 1.1
%TAG !u! tag:unity3d.com,2011:
--- !u!78 &1
TagManager:
  serializedVersion: 2
  tags: []
  layers:
  - Default
  - TransparentFX
  - Ignore Raycast
  - 
  - Water
  - UI
  - 
  - 
  - Player
  - Enemy
  - Collectible
  - Ground
  - LoudGround
  - Obstacles
  - 
  - 
  - 
  - 
  - 
  - 
  - 
  - 
  - 
  - 
  - 
  - 
  - 
  - 
  - 
  - 
  - 
  - 
  m_SortingLayers:
  - name: Default
    uniqueID: 0
    locked: 0
  - name: Ground
    uniqueID: 1602857721
    locked: 0
  - name: LoudGround
    uniqueID: 3111787705
    locked: 0
  - name: Players
    uniqueID: 2182146497
    locked: 0
  - name: Collectibles
    uniqueID: 3187126425
    locked: 0
  - name: Obstacles
    uniqueID: 2801170259
    locked: 0
  - name: UI
    uniqueID: 4191463919
    locked: 0
